R 기본함수를 이용한 데이터 가공과 시각화
…
3.2 열 선택 : [행,열] 중에 지정하지 않으면 모든 행 또는 열 선택

# gapminder$country  # $ 연산자로 열(column) 인덱스
gapminder[, c("year", "pop", "gdpPercap")]  # 열 이름을 벡터화하여 선택

## # A tibble: 1,704 x 3
##     year      pop gdpPercap
##    <int>    <int>     <dbl>
##  1  1952  8425333      779.
##  2  1957  9240934      821.
##  3  1962 10267083      853.
##  4  1967 11537966      836.
##  5  1972 13079460      740.
##  6  1977 14880372      786.
##  7  1982 12881816      978.
##  8  1987 13867957      852.
##  9  1992 16317921      649.
## 10  1997 22227415      635.
## # ... with 1,694 more rows

gapminder[, 1:3]  # 숫자 인덱스

## # A tibble: 1,704 x 3
##    country     continent  year
##    <fct>       <fct>     <int>
##  1 Afghanistan Asia       1952
##  2 Afghanistan Asia       1957
##  3 Afghanistan Asia       1962
##  4 Afghanistan Asia       1967
##  5 Afghanistan Asia       1972
##  6 Afghanistan Asia       1977
##  7 Afghanistan Asia       1982
##  8 Afghanistan Asia       1987
##  9 Afghanistan Asia       1992
## 10 Afghanistan Asia       1997
## # ... with 1,694 more rows
…
gapminder[gapminder$lifeExp == 23.599, ] 

## # A tibble: 1 x 6
##   country continent  year lifeExp     pop gdpPercap
##   <fct>   <fct>     <int>   <dbl>   <int>     <dbl>
## 1 Rwanda  Africa     1992    23.6 7290203      737.

gapminder[gapminder$year == 2007, ]  

## # A tibble: 142 x 6
##    country     continent  year lifeExp       pop gdpPercap
##    <fct>       <fct>     <int>   <dbl>     <int>     <dbl>
##  1 Afghanistan Asia       2007    43.8  31889923      975.
##  2 Albania     Europe     2007    76.4   3600523     5937.
##  3 Algeria     Africa     2007    72.3  33333216     6223.
##  4 Angola      Africa     2007    42.7  12420476     4797.
##  5 Argentina   Americas   2007    75.3  40301927    12779.
##  6 Australia   Oceania    2007    81.2  20434176    34435.
##  7 Austria     Europe     2007    79.8   8199783    36126.
##  8 Bahrain     Asia       2007    75.6    708573    29796.
##  9 Bangladesh  Asia       2007    64.1 150448339     1391.
## 10 Belgium     Europe     2007    79.4  10392226    33693.
## # ... with 132 more rows
…
3.4 정렬 순서 지정

gapminder[order(gapminder$year, gapminder$country), ]  # 연도순, 국가순 정렬

## # A tibble: 1,704 x 6
##    country     continent  year lifeExp      pop gdpPercap
##    <fct>       <fct>     <int>   <dbl>    <int>     <dbl>
##  1 Afghanistan Asia       1952    28.8  8425333      779.
##  2 Albania     Europe     1952    55.2  1282697     1601.
##  3 Algeria     Africa     1952    43.1  9279525     2449.
##  4 Angola      Africa     1952    30.0  4232095     3521.
##  5 Argentina   Americas   1952    62.5 17876956     5911.
##  6 Australia   Oceania    1952    69.1  8691212    10040.
##  7 Austria     Europe     1952    66.8  6927772     6137.
##  8 Bahrain     Asia       1952    50.9   120447     9867.
##  9 Bangladesh  Asia       1952    37.5 46886859      684.
## 10 Belgium     Europe     1952    68    8730405     8343.
## # ... with 1,694 more rows
…
